<?xml version="1.0" encoding="utf-8"?>
<!-- Generator: Adobe Illustrator 19.1.0, SVG Export Plug-In . SVG Version: 6.00 Build 0)  -->
<svg version="1.1" id="Layer_1" xmlns="http://www.w3.org/2000/svg" xmlns:xlink="http://www.w3.org/1999/xlink" x="0px" y="0px"
	 viewBox="579 279 1770 235" style="enable-background:new 579 279 1770 235;" xml:space="preserve">
<style type="text/css">
	.st0{fill:#63B9AF;}
</style>
<path class="st0" d="M10924.3,2930.7c-17.7,4.4-35.8,8-52.2,16.1c-1.2,0.6-0.1,2.3,1,1.7c16.3-8,34.2-11.6,51.8-15.9
	C10926.1,2932.3,10925.6,2930.4,10924.3,2930.7z"/>
<path class="st0" d="M10788.6,2495.7c-4.2-0.1-8.2-1.9-11.9-3.8c-2.9-1.5-7.8-4.5-8.1-8.2c-0.4-5.1-8.4-5.2-8,0
	c0.8,12.1,17.4,19.6,28,20C10793.8,2503.9,10793.7,2495.9,10788.6,2495.7z"/>
<path class="st0" d="M1713.3,353.4c0.1,0,0.2,0,0.3,0.1c-0.9,6.2-1.8,12.5-2.7,18.7c0,0,0.4,0.1,0.3,0.1c0.9-4.6,1.9-9.3,2.8-13.9
	c2.1-10.9,4.1-21.8,6.2-32.7c1.3-6.7,2.5-13.4,3.8-20.1c0.1-0.4,0.2-0.8,0.1-1.1c-0.2-0.6-0.6-1.2-0.9-1.8c-0.6,0.5-1.6,0.9-1.7,1.5
	c-0.4,2.1-9.6,50.2-13,67.3c0.3,0,0.5,0,0.6,0C1710.5,365.5,1711.9,359.4,1713.3,353.4z"/>
<path class="st0" d="M644.1,327.1l8.5,0.1v-4.9c0-2.3,1.9-4.1,4.1-4c2.3,0,4.1,1.9,4,4.1v4.9l7.6,0.1v-4.9c0-2.3,1.9-4.1,4.1-4
	c2.3,0,4.1,1.9,4,4.1v4.9l8.1,0.1v-4.9c0-2.3,1.9-4.1,4.1-4c2.3,0,4.1,1.9,4,4.1v4.9l8.5,0.1l0.1-13.3h2.7v-5.4l-31.6-9.4l-32.4,8.9
	v5.4l4.1-0.6L644.1,327.1z"/>
<path class="st0" d="M709.3,381.7h6.2v-3.5c0-1.6,1.3-3,3-3c1.6,0,3,1.3,3,3v3.5h5.5v-3.5c0-1.6,1.3-3,3-3c1.6,0,3,1.3,3,3v3.5h5.9
	v-3.5c0-1.6,1.3-3,3-3c1.6,0,3,1.3,3,3v3.5h6.2V372h2v-4l-23-6.7l-23.5,6.6v4l3-0.5L709.3,381.7z"/>
<polygon class="st0" points="2098.5,301.7 2098.5,299.6 2097.3,299.6 2095.4,303 2096.8,305.5 2099.1,303.4 2099.1,303.1 
	2099.3,303.2 2099.5,303.1 2099.5,303.4 2101.7,305.5 2103.2,303 2101.2,299.6 2100,299.6 2100,301.7 "/>
<polygon class="st0" points="2097.6,293 2098.5,293 2098.5,299.6 2100,299.6 2100,293 2100.9,293 2100.9,292.3 2104.1,292.3 
	2104.1,291.2 2100.9,291.2 2100.9,290.3 2100,290.3 2100,286.7 2098.5,286.7 2098.5,290.3 2097.6,290.3 2097.6,291.2 2094.4,291.2 
	2094.4,292.3 2097.6,292.3 "/>
<path class="st0" d="M1856.2,407.5h0.4c0-1.8,1.1-3.2,2.5-3.2s2.5,1.4,2.5,3.2v9.9h5v-9.7c0-2.2,1.8-4,4-4s4,1.8,4,4v9.7h5v-9.9
	c0-1.8,1.1-3.2,2.5-3.2s2.5,1.4,2.5,3.2v9.9h1v-12.2c-17.1-19.1-30.8,0-30.8,0v12.2h1.4V407.5z"/>
<path class="st0" d="M1759.5,430.8L1759.5,430.8c-0.1-1.5,0.9-2.8,2.1-2.8s2.2,1.2,2.2,2.8v8.5h4.3V431c0-1.9,1.5-3.5,3.4-3.5
	s3.5,1.5,3.5,3.5v8.3h4.3v-8.5c0-1.5,1-2.8,2.2-2.8s2.2,1.2,2.2,2.8v8.5h0.9v-10.4c-14.6-16.4-26.3,0-26.3,0v10.4h1.2V430.8z"/>
<path class="st0" d="M1848.6,514v-0.2c0,0,2.9-33.9-40.1-56.7l-23.6-12.9h-13.6h-13.6l-23.6,12.9c-40.8,21.6-40.3,53.2-40.1,56.4
	l-2.9-2c1.1-6.8,2.1-13.4,3-20.2c1.6-10.8,3-21.6,4.6-32.3c0.4-2.7,4.1-7.6,4.1-7.6l-1.8-6.9c0,0,6.7-45.9,8.1-55.6
	c0.3-1.8,0.7-2.7,2.7-2.8c3.6-0.3,4.4-1.3,5-4.8c0.1-0.4,0.8-0.7,1-1.1c1-1.8,1.6-3.6-0.2-5.4c-1.6-1.5-3.3-2.3-5.1-1.5l-1,5.4
	c-2-0.1-4.5-0.3-7.2-0.4l1.1-5.9c-2.9-0.9-5.5,0.9-5.4,3.9c0.1,1.7,0.1,3.5,0.5,5.1c0.3,1.1,1.3,2.2,2.2,3c0.9,0.8,1.4,1.2,0.7,2.5
	c-2.3,3.6-16,26.3-16,26.6c-0.1,0.1,0.1,0.7,0.6,1.2c-1.8,4.7-16.3,25.1-16,24.6c-0.1-0.1-7,3.7-7,3.7s-0.3,3.3-0.3,5
	c0,0.3,1.7,0.8,1.9,1.1c-4.3,6.8-14.5,22.7-15.6,24.1c-0.7,0.8-0.8,3.3,0.3,3.8c-1.5,1.6-2.9,3.3-4.3,5l-28.2-18.9
	c-10.9-1.9-28.3-16.7-28.3-16.7v-10.3l-3.9,0.7v-45.3h-9.2v-30h2.2l-23.3-36.2v-6.7h1.5v-1.2h-1.5v-2.9h-1.2v2.9h-1.3v1.2h1.3v6.6
	l-21.3,36.3h3.4v33.2l-5.6,2.4v20.4v10.2l-5.4-1.4l-17.1,1.1v-10.7V401h3.3l-1.3-0.8l-13.4-7.9v-11.1l2.1-0.4l-9.4-9.4h-10.9
	l-1.9-2.5h-6.7l-0.4-1.8v-30h2.7l-24.8-27.9V304h1.5v-1.2h-1.5v-2.9h-1.2v2.9h-1.3v1.2h1.3v5.2l-22,30.4h4.8v32.8h-18l-9.2,15.5h4.4
	v13.6l-11.1,7.6h3.9v18.6l-8.7,2.9v3.9l-12.8,4.6v3.7l-14.8,3.9l-16.1,4.5v10.3v2.6c-8.6,3-30.6,18.3-49.9,32.5l-2.9-83.5l-12,0.5
	l-2.3-58.4l-3.3,0.1l-0.3-8.8l-21.7,0.8l12-0.5l-0.6-14.2l-6.6,0.3l-1.1-28l-8.8-15.9l-7.9,16.6l1.1,28l-5.1,0.2l0.5,14.2l-10.8,0.4
	l0.3,8.9l-3.3,0.1l2.3,58.4l-10.9,0.4l3.3,84.9c-1.2,0-2.4,0.1-3.6,0.2c-0.5,0-1.1-0.1-1.1-0.7c0-1.1-0.8-1.2-1.6-1.4
	c-1-0.3-1.9-0.5-2.9-0.6c-1-0.2-1.5-0.5-1.5-1.7c0-0.9-0.1-1.8-1.3-2.3c-4.4-1.7-8.6-3.7-13-5.4c-1.4-0.5-1.8-1.5-1.6-2.6
	c0.3-1.3,0.3-2.7,0.6-4c0.4-2,0.4-4-1-5.7c-0.3-0.3-0.4-0.9-0.5-1.4c-1.1-5.6-1.3-11.2-0.6-16.9c0.2-1.7,0.9-3.4,0-5.1
	c-0.2-0.3-0.1-0.9,0.2-1.3c1.2-1.3,1.4-2.9,1.8-4.5c0.3-1,0.1-1.8-0.9-2.4c-1.2-0.6-1.6-1.6-1.6-3c0-4.5,0.7-9.1,0.3-13.6
	c-0.3-2.9,0.3-5.9-0.4-8.9c-0.8-3.2-2-6.2-2.9-9.4c-0.2-0.7-0.5-1.3-0.9-1.8c-3.6-5.5-8.7-8.5-15-9.8c-1.2-0.3-2.4-0.5-3.6-0.8
	c-1.1-0.2-1.7-0.8-1.6-1.8c0.1-2-0.8-4.1,0.5-6.1c0.1-0.2,0.1-0.5,0-0.7c-0.3-1.4-0.6-2.7-1-4.1c-0.1-0.4-0.4-0.9-0.8-0.8
	c-1.3,0.3-1.1-0.7-1.2-1.3c-0.2-1.7-0.1-3.5-0.4-5.3c-0.2-1.2,0.1-1.8,1.1-2.4c4.1-2.2,6.8-6,9.4-9.8c1.3-1.9,1.2-2.7-0.3-4.5
	c-1.3-1.6-2.8-3-4.1-4.6c-2-2.3-4.6-4-6-6.8c-1.2-2.5-3.4-3-5.8-2.8c-2.2,0.2-4.3-0.4-6.3-1.1c-1.6-0.5-2.2-2-1.5-3.5
	c0.3-0.7,0.3-1.5,0.4-2.2c0.2-1.9-0.6-3.8-0.1-5.6c0.5-1.7-0.5-3.2-0.2-4.9c0.1-0.8-0.6-1.4-1.4-1.7c-2.8-1.1-5.7-1.9-8.8-0.7
	c-2.9,1.1-3.5,1-3,4.2c0.3,2.2,1.2,4.2,1.2,6.4c0,1.7,0.8,3.4,1.1,5.1c0.2,1.4-0.2,2.7-0.6,4c-0.1,0.3-0.3,0.5-0.6,0.5
	c-2.5,0.4-4.9,1-7.5,0.5c-0.9-0.2-1.8-0.2-2.7,0.3c-1.8,0.9-3.8,0.3-5.7,0.3c-0.3,0-0.6-0.2-0.6-0.5c-0.1-1.2-0.8-1-1.7-0.9
	c-1.9,0.2-4.4-1.8-4.9-3.7c-0.7-2.9-0.7-5.9-1.1-8.8c-0.1-0.7,0.1-1.3,0.6-1.8c1.2-1.3,1.5-2.9,1.7-4.6c0-0.6,0.7-1.6-0.2-1.9
	c-0.9-0.4-1.3,0.6-1.8,1.2c-0.1,0.1-0.2,0.1-0.3,0.1c-0.5-0.7-0.4-1.5-0.5-2.3c-0.1-1.5-0.5-2.9-0.9-4.4c-0.4-1.2-1.3-1.7-2.3-1.8
	c-1-0.2-1.4,0.8-1.9,1.6c-1,1.4-1,3.1-1.1,4.7c-0.2,3.2-1.3,6.3,0.4,9.4c0.2,0.4,0.1,1-0.1,1.5c-0.2,0.4-0.2,0.7-0.1,1.1
	c0.7,2.8-0.1,5.6,0.2,8.4c0.1,0.4-0.1,0.7-0.6,0.7c-1.4-0.1-2.3,0.8-3,1.8c-1.2,1.7-2.3,3.5-2.1,5.7c0,0.9-0.4,1.7-1.1,2.2
	c-1,0.7-1.4,1.7-1.8,2.7c-0.4,0.8-0.2,1.4,0.7,1.9c1.9,0.9,2,1.4,1,3.5c-0.8-0.7-1.5-1.5-2.2-2.2c-0.4-0.4-0.8-0.7-1.1,0
	c-1.1,2.2,0,6.1,2.2,7.5c0.6,0.4,1.5,0.7,1.5,1.5c0,1.5,0.8,2.6,1.5,3.8c0.3,0.5,0.2,1,0.2,1.6c0,1.4,0.3,3,1.8,3.5
	c2.1,0.7,3.2,2.3,4.6,3.7c1.5,1.6,1.7,3.6,1.9,5.6c0.2,1.4-1.2,2-1.9,2.8c-0.8,0.9-1.3,1.8-0.7,3c0.3,0.8,0.2,1.5-0.1,2.3
	c-1.1,2.4-2,4.9-1.8,7.6c0.3,4.3,1.7,8.3,3.7,12.1c0.7,1.4,1.9,2.5,2.7,3.9c0.7,1.3,1,2.5-0.3,3.7c-0.4,0.4-0.6,0.9-0.7,1.4
	c-0.2,1.1-1,1.5-1.9,1.8c-0.5,0.2-1.1,0.4-1.7,0.6c-0.8,0.2-1.4,0.5-1.3,1.6c0.1,1.2,0.8,1.6,1.9,1.6c0.5,0.1,1.1-0.2,1.6,0.2
	c1.1,0.9,2.4,0.8,3.7,0.6c1.1-0.1,1.7,0.2,2.2,1.1c0.5,0.9,1.3,1.6,1.8,2.5c1.5,2.4,3.2,4.7,2.8,7.9c-0.3,3,1.1,5.7,2.6,8.2
	c0.6,1.1,1.3,2,1.7,3.2c0.7,2.2,1.1,4.6,0.7,6.8c-0.3,1.5-0.6,2.9-0.3,4.4c0.2,0.9-0.1,1.6-0.8,2.1c-0.5,0.3-0.9,0.7-1,1.3
	c-0.2,2.1-0.8,2.7-2.9,2.8c-2,0.1-4,0.3-6,0.5c-2.8,0.3-5.6,0.6-8.4,0.9c-0.9,0.1-1.7,0.4-1.7,1.6c0,3.8-0.1,7.6-0.2,11.4
	c0,0.8,0.7,1.8,0,2.3c-0.6,0.4-1.7,0.2-2.5,0.2c-2.7,0.1-3,0.5-3,3.1c0,0.9,0.2,1.9-1.1,2.2c-0.5,0.1-0.5,0.7-0.5,1.2
	c-0.1,3.2-0.4,6.4-0.5,9.6c0,0.7-0.2,1.1-1,1.1c-1.3,0-8.3-0.1-11.2,1.9v-22.6v-41.9h-13v-0.1v-20.2h-51.9v11.3h-10v-45.8h-2.2
	v-40.9L997,322l-11.3,27.6v39.9h-5.2v2.2v6.2l-15.9-6.2l-13.3,15v10.6h-3.5v26.4l-20.1-10.4h-37.1l-30.1,11.3v21h-5.2v-7.1l-14-9.4
	H809l-8.3,10.4v3.3h9.1V477h-9.1v5.2L775.8,468h-15.3l-7.7,4.6l-4.7-88.5l-36.9-0.1l-4.7,82.4l-3-0.3l-6.1-135.5l-50.8-0.4
	l-7.8,129.6l-1.5-0.1l-62.6,41L566,514H1848.6z M1690,486.3c-1.3,7.3-2.5,14.7-3.7,22.1l-14-9.3c1.1-2.7,2.2-5.5,2.9-7.5
	c0.7-2.1,1.9-3.4,4-4.1c3.5-1.1,7-2.3,10.8-3.5C1690,485,1690.1,485.7,1690,486.3z M1673.4,485.8c-5-2.4-10-4.8-15-7.2
	c0.8-0.5,1.6-0.6,2.3-0.5c3.3,0.5,6.6,0.9,9.9,1.5c5.4,1,5.4-0.3,3.2,5.8C1673.8,485.5,1673.7,485.5,1673.4,485.8z M1677.6,485.8
	c0.4-1.5,0.6-2.6,1-3.5c0.2-0.5,0.8-1.2,1.3-1.2c1.6,0,3.2,0.3,4.7,0.5c0.4,0.1,0.8,0.6,0.9,1c0.1,0.2-0.3,0.8-0.7,0.9
	C1682.7,484.3,1680.4,484.9,1677.6,485.8z M1694.7,457.1c-1.2,6.9-2.3,13.9-3.4,20.8c-0.4,1.8-3.9,2.3-5.4,2.2c-3.8-0.8-6-1.2-4.9-5
	c1.4-5,3.1-10,4.7-14.9c0.2-0.6,0.6-1.2,1.1-1.5c2-1.1,4-2.1,6-3C1694.1,455.1,1694.9,455.4,1694.7,457.1z M1696,445.4
	c0,0-3.2-0.1-4.6-0.5c-0.3-0.1,4.8-17.4,6.8-24.3c1.1-3.8,2.7-2.6,3-2.4C1699.7,426.8,1696,445.4,1696,445.4z M1704.9,397.7
	l-2.8,17.2c-0.2,0-2.9-0.5-2.7-0.8C1699.8,411.6,1704,400,1704.9,397.7z M1694.3,408.6c1.9-3.2,7-11.4,7.6-12.4
	c0.1,0.2,0.2,0.2,0.3,0.3c-0.7,1.8-3.8,11.9-4.8,15c-0.6,2.1-2.5,1.5-3.6,0.9C1691.7,411.4,1694,409,1694.3,408.6z M1685.8,422.6
	c1.5-2,4.4-7.1,4.6-7.4c5.4,4.5,5.1,2.8,3.3,8.8c-1.7,5.7-6.1,19.3-6.1,19.3l-1.8,1.2c0,0-8-1.5-12.3-2.3
	C1677.7,435.6,1681.7,429.1,1685.8,422.6z M1654.4,473.1c1-1.6,2-3.1,2.9-4.7c2.3-3.7,4.5-7.4,6.7-11.1c1.2-2,2.4-4.1,3.8-6
	c0.3-0.5,1.5-0.9,2-0.7c3,1.5,13.7,6.3,12.6,8.5c-2.3,6.9-4,12.4-6,17.8c-0.2,0.6-1.5,1.2-2.3,1.2c-1.8-0.1-14.1-2.9-18.5-3.6
	C1654.3,474.3,1653.7,474.3,1654.4,473.1z M1652.1,478.6c0.4-0.4,1.5-0.7,1.9-0.5c6.2,3,11,6,17.2,9c1.7,0.8,1.9,1.6,1.3,3.2
	c-0.9,2.3-1.8,4.6-2.8,7l-21.4-14.3C1650.1,480.9,1651.5,479.3,1652.1,478.6z M1571.4,380c2.2,0,4,4,4,8.9c0,0.8-0.1,1.6-0.2,2.4
	h-7.7c-0.1-0.8-0.2-1.6-0.2-2.4C1567.4,384,1569.2,380,1571.4,380z M1562.6,421.4h8.5V438l-8.5-2.2V421.4z M1558.1,380
	c2.2,0,4,4,4,8.9c0,0.8-0.1,1.6-0.2,2.4h-7.7c-0.1-0.8-0.2-1.6-0.2-2.4C1554.1,384,1555.8,380,1558.1,380z M1544.7,380
	c2.2,0,4,4,4,8.9c0,0.8-0.1,1.6-0.2,2.4h-7.7c-0.1-0.8-0.2-1.6-0.2-2.4C1540.7,384,1542.4,380,1544.7,380z M1468.8,398.6
	c0-1.1,0.7-2,1.5-2c0.8,0,1.5,0.9,1.5,2v10.7c0,1.1-0.7,2-1.5,2c-0.8,0-1.5-0.9-1.5-2V398.6z M1460.9,348.5c0-1.1,0.7-2,1.5-2
	s1.5,0.9,1.5,2v10.7c0,1.1-0.7,2-1.5,2s-1.5-0.9-1.5-2V348.5z M1449,348.5c0-1.1,0.7-2,1.5-2s1.5,0.9,1.5,2v10.7c0,1.1-0.7,2-1.5,2
	s-1.5-0.9-1.5-2V348.5z M1437.3,348.5c0-1.1,0.7-2,1.5-2c0.8,0,1.5,0.9,1.5,2v10.7c0,1.1-0.7,2-1.5,2c-0.8,0-1.5-0.9-1.5-2V348.5z
	 M1273,499.9c-2.3,0.1-4.2-1.8-4.3-4.2l-2.6-67.1c-0.1-2.4,1.7-4.4,4-4.5c2.3-0.1,4.2,1.8,4.3,4.2l2.6,67.1
	C1277,497.8,1275.3,499.8,1273,499.9z M1284,423.6c2.3-0.1,4.2,1.8,4.3,4.2l2.6,67.1c0.1,2.4-1.7,4.4-4,4.5
	c-2.3,0.1-4.2-1.8-4.3-4.2l-2.6-67.1C1279.9,425.7,1281.7,423.7,1284,423.6z M1272.3,357.8c1.6-0.1,2.9,1.3,3,3l1.9,48.5
	c0.1,1.7-1.2,3.2-2.7,3.2c-1.6,0.1-2.9-1.3-3-3l-1.9-48.5C1269.5,359.3,1270.8,357.8,1272.3,357.8z M1262.6,358.1
	c1.6-0.1,2.9,1.3,3,3l1.9,48.5c0.1,1.7-1.2,3.2-2.7,3.2c-1.6,0.1-2.9-1.3-3-3l-1.9-48.5C1259.8,359.6,1261.1,358.2,1262.6,358.1z
	 M1260.4,428.9l2.6,67.1c0.1,2.4-1.7,4.4-4,4.5c-2.3,0.1-4.2-1.8-4.3-4.2l-2.6-67.1c-0.1-2.4,1.7-4.4,4-4.5
	C1258.4,424.6,1260.3,426.5,1260.4,428.9z M1252.9,358.5c1.6-0.1,2.9,1.3,3,3l1.9,48.5c0.1,1.7-1.2,3.2-2.7,3.2
	c-1.6,0.1-2.9-1.3-3-3l-1.9-48.5C1250.1,360,1251.4,358.6,1252.9,358.5z M1243.2,358.9c1.6-0.1,2.9,1.3,3,3l1.9,48.5
	c0.1,1.7-1.2,3.2-2.7,3.2c-1.6,0.1-2.9-1.3-3-3l-1.9-48.5C1240.4,360.4,1241.7,359,1243.2,358.9z M1242.2,425.2
	c2.3-0.1,4.2,1.8,4.3,4.2l2.6,67.1c0,2.4-1.8,4.4-4,4.5c-2.3,0.1-4.2-1.8-4.3-4.2l-2.6-67.1C1238.1,427.3,1239.9,425.3,1242.2,425.2
	z M1233.5,359.3c1.6-0.1,3,1.3,3,3l1.9,48.5c0.1,1.7-1.2,3.2-2.7,3.2c-1.6,0.1-2.9-1.3-3-3l-1.9-48.5
	C1230.7,360.8,1232,359.3,1233.5,359.3z M1228.2,425.7c2.3-0.1,4.2,1.8,4.3,4.2l2.6,67.1c0.1,2.5-1.7,4.5-4,4.5
	c-2.3,0.1-4.2-1.8-4.3-4.2l-2.6-67.1C1224.1,427.8,1225.9,425.8,1228.2,425.7z M1167.3,446.6c0.3-1.5-0.1-3.1,0.7-4.5
	c0.2-0.3,0.2-0.8,0.7-0.7c0.4,0.1,0.4,0.4,0.4,0.7c0.5,3.1,2.6,5.1,4.7,7.1c1.2,1.2,2.4,2.4,3.5,3.7c0.8,1.1,1.5,2.2,1.4,3.6
	c0,0.7,0.4,1.4,0.7,2.1c1.3,3.2,3.1,6.2,4,9.6c0.5,2,0.8,4.1,1.1,6.1c0.2,1.1,0.1,2.2-0.6,3.3c-0.8,1.2-0.7,2.7-0.3,4.2
	c0.1,0.7,0.6,1.5-0.2,2.1c-0.7,0.6-1.4,0.3-2.1,0c-2.2-0.9-4.5-1.7-6.6-2.8c-1.4-0.7-2.3-2.2-2.6-3.7c-0.5-2.4-0.8-5-0.9-8
	c-0.4-1.7,0.5-3.8,0.6-6c0.1-1.8,0.4-3.7,0.2-5.3c-0.2-1.9,0-4.3-2.3-5.8C1167.9,451.1,1166.9,449,1167.3,446.6z M1141.9,468.8
	c1-1,1.7-2.2,2.1-3.6c0.4-1.2,0.3-2.5,0-3.8c-0.9-3.8-1.4-7.6-0.7-11.5c0.5-3,0.7-6-0.3-8.9c-0.3-0.6-0.9-1.7-0.3-2
	c0.8-0.4,2.2-0.2,2.8,0.6c1.2,1.6,2.7,3.1,3.1,5.2c0.5,2.8,2.1,4.9,4.3,6.7c2.3,1.8,4.3,3.9,6.4,5.9c0.8,0.8,1.2,1.8,1.3,3
	c0.3,2.3,1.6,4.4,2.5,6.5c0.7,1.7,1.1,3.4,1.4,5.1c0.2,1.1,0.3,2.2,0.4,3.3c0.1,1.7-0.1,1.8-1.4,1.2c-4.5-1.8-8.9-3.4-13.3-5.4
	c-2.1-1-4.2-0.7-6.3-0.6c-0.4,0-0.7,0.1-1.1,0.1c-0.5,0.1-1,0-1.2-0.5C1141.3,469.5,1141.5,469.1,1141.9,468.8z M1131.8,441.4
	c0.9,0.1,1.1,0.6,1.2,1.4c0.4,3.1,0.9,6.1,2.2,9c0.6,1.4,0.7,3,0.6,4.5c0,1.3-0.2,2.7-0.4,4c-0.1,0.5-0.3,1.1-0.9,1.1
	s-0.7-0.6-0.8-1c-1-3.6-2.1-7.2-2.2-11c0-2.8-0.5-5.7-2.1-8.4C1130.4,440.8,1131.1,441.1,1131.8,441.4z M1001.6,437.3H997v-19.4
	c0-2.8,1-5.1,2.3-5.1s2.3,2.3,2.3,5.1V437.3z M1001.8,362.2c0-1.5,1-2.6,2.3-2.6s2.3,1.2,2.3,2.6v10h-4.6V362.2z M1001.6,380.7v11.6
	H997v-11.6c0-1.7,1-3.1,2.3-3.1S1001.6,379,1001.6,380.7z M994.5,362.2h0.1c0-1.5,1-2.6,2.3-2.6s2.3,1.2,2.3,2.6v10h-4.7V362.2z
	 M987.7,362.2c0-1.5,1-2.6,2.3-2.6s2.3,1.2,2.3,2.6v10h-4.6V362.2z M937.3,455.8h4.7v10.1h-4.7V455.8z M928.2,455.8h4.7v10.1h-4.7
	V455.8z M907.9,455.8h4.7v10.1h-4.7V455.8z M872.7,455.8h4.7v10.1h-4.7V455.8z M818.2,464.4h4.7v10.1h-4.7V464.4z M726.8,404.5h5.6
	v8.5h-5.6V404.5z M726.7,425.9h5.6v8.5h-5.6V425.9z M667.9,358.5l7.7,0.1l-0.1,11.7l-7.7-0.1L667.9,358.5z M667.7,387.9l7.7,0.1
	l-0.1,11.7l-7.7-0.1L667.7,387.9z"/>
<path class="st0" d="M1849.4,513.9v0.1H1990c1.6-29.2,5.8-102.1,5.6-104c2.4,0,4.8,0,7.1,0.2c3,0.2,6,0.8,9,0.6
	c0.2,0.2,0.5,0.3,0.8,0.1c1.9-1.3,4.2-1.8,6.1-3c0.1-0.1,0.2-0.2,0.2-0.3c0.7,0.4,1.2-0.8,0.5-1.2c-1.9-0.9-3.7-2.1-5.5-3.2
	c-0.2-0.1-0.4-0.1-0.5-0.1c-0.1-0.1-0.2-0.1-0.4-0.1c-3,0.2-6-0.4-8.9-0.6c-2.6-0.2-5.3,0-7.9-0.1c0.2-3.1-0.1-6.1-0.9-9.1
	c-0.8-2.9-2.1-5.6-3.1-8.5c-1.2-3.6-0.7-6.8,1.4-10c1.3-1.9,2.3-4.1,3.2-6.3c0.2,0.6,0.5,1.1,0.7,1.7c0.9,1.9,1,4.1,1.7,6
	c1.5,4,5.1,6.7,7.7,9.8c1.2,1.5,4.7,6.2,7.2,4.4c1.2-0.9,1.1-2.7,1.6-4c0.4-1.3,1.1-2.4,1.7-3.6c0.2-0.1,0.3-0.2,0.4-0.4
	c0.1-0.4,0.3-0.8,0.6-1.2c0.1-0.2,0.1-0.4,0.1-0.5c1.4-4.9,2.7-9.9,2.5-15c-0.1-2.5-0.6-4.9-1-7.4c-0.4-2.8-0.2-5.4,0-8.1
	c0.1-0.1,0.2-0.1,0.2-0.3c0.8-1.8,3.5-3,5.3-3.4c0.9-0.2,1.7-0.4,2.4-0.9c0.8-0.5,1.1-1.6,1.6-2.4c1.1-1.7,2.7-2.7,3.5-4.6
	c0.5-1.2,0.4-2.9,1.1-4c0.5-0.8,1.3-1.2,1.6-2.2c0.5,0.1,0.4-0.4,0-0.4c0.4-0.5,0.7-1,0.3-1.7c-0.3-0.6-0.8-0.6-1.3-0.4
	c0.1-0.6,0.1-1.2-0.6-1.6c-0.7-0.4-1.5,0.2-2.1,0.8c-0.4-0.4-1.1-0.6-1.7-0.3c-1.2-2-7.6-3.9-8.8-4.2c-2.2-0.6-4.8,0-6.9,0.6
	c-2.3,0.7-4.6,2.2-5,4.8c0,0.3,0.1,0.5,0.3,0.6v0.1c0,0.1,0,0.2,0,0.2c0.4,3.4,1.4,6.3,3.4,9.2c0.1,0.2,0.4,0.3,0.5,0.2
	c-0.2,0.5-0.4,1-0.5,1.6c-0.6,2.4-0.8,5-1.1,7.5c-0.7,4.9-0.6,9.9-2.3,14.6c-0.1-1.2-0.2-2.5-0.5-3.7c-0.2-0.7-0.4-1.3-0.7-1.9
	c-0.2-0.4-1-1.3-0.9-1.7c0.3-2.8-0.2-5.7-1.1-8.4c-0.8-2.5-2.3-4.8-4.7-6.1c-2.4-1.3-5-1.7-7.7-1.9c-1.9-5.5-3.5-11.1-5.2-16.6
	c0.1-0.1,0.1-0.2,0.1-0.3c0-0.1,0-0.2,0-0.3c0,0,0,0,0-0.1c0-0.1,0-0.1,0-0.2v-0.1v-0.1c-0.1-0.3-0.3-0.6-0.5-0.9
	c1.9-4,3.9-7.8,4.4-12.4c0.1-0.4-0.5-0.7-0.8-0.4c-0.1,0.1-0.2,0.1-0.3,0.2c0.3-1,0.5-2,0.6-3.1c0.1-0.9,0.2-2.2-0.3-2.9
	c-0.2-0.3-0.7-0.2-0.8,0.1c-0.1,0.4-0.2,0.7-0.4,1c0-1.7-0.2-3.3-0.5-5c-0.1-0.5-0.9-0.5-0.9,0c-0.1,0.4-0.2,0.8-0.3,1.1
	c-0.1-0.6-0.3-1.3-0.6-1.9c-0.4-1-1.6-2.6-1.5-3.7c0.1-0.6-0.9-0.7-1-0.1s-0.3,1.2-0.5,1.8c-1-1.3-2.1-2.4-3.3-3.5
	c-0.3-0.3-0.7,0-0.8,0.3c-0.1,0.9-0.4,1.8-0.9,2.6c-1.7-0.3-3.4-0.5-5.1-0.5c-0.5-0.6-1-1.3-1.4-2c-0.2-0.3-0.4-0.4-0.7-0.3
	c-0.2-0.3-0.6-0.5-0.9-0.2c-1.3,1.1-2.3,2.3-2.9,3.7c-0.2-0.5-1-0.7-1.2-0.1c-0.5,1.5-1,3.1-0.9,4.7c0,0-0.1,0-0.1-0.1
	c-0.4-0.4-1.3-0.2-1.1,0.5c0.2,1.1,0,2.3,0.1,3.4c-0.3-0.1-0.8,0.2-0.8,0.6c0,1.6,0.2,3,0.8,4.5c-0.1,0.1-0.1,0.3,0,0.5
	c1.3,4,1.8,8.2,3.7,11.9c-2.9,5-3.9,10.7-6.6,15.9c-2.3-0.1-4.5,1.5-5.7,3.4c-8.9-4.8-12.6,9.8-14.7,15.8c0,0.1,0,0.2,0,0.3
	c-1.1,1.1-2.4,1.9-3.4,3.1c-1.6,1.8-2.9,3.8-4.2,5.9c-0.6,1-1.2,2-2.1,2.8c-0.8,0.8-1.8,1.3-2.6,2c-0.7,0.5-1.1,1.3-1.6,2
	c-0.8,1.1-1.8,2-2.8,2.9c-1.5,1.4-3,2.8-4,4.6c-1,1.7-1.3,3.7-1.5,5.6c-0.3,2.5-0.4,4.8-1.2,7.2c-0.5,1.5-1.1,3-1.8,4.5
	c-0.1-0.1-0.3-0.2-0.5-0.3c-0.5-0.2-0.8,0.2-0.8,0.6c0,0-0.1,0-0.1,0.1c-0.2,0.1-0.4,0.2-0.5,0.3c-0.3,0.1-0.6,0.3-0.9,0.4
	c-1.4,0.5-2.7,1.5-4,2.2c-2.5,1.3-5.1,2.6-7.4,4.3c-0.2,0.2-0.3,0.4-0.2,0.6c0,0.2,0.1,0.3,0.2,0.5c3.2,2.7,7.6,3.6,11.2,5.7
	c0.3,0.1,0.5,0.2,0.8,0c0.1-0.1,0.1-0.1,0.2-0.2c0.4,0.3,0.9,0.3,1.5,0.1c0.3-0.1,0.4-0.2,0.4-0.3c0.2,1.4,1.7,1.6,2.6,0.4
	c0.6,0.6,0.7,1.7,1.6,1.9c0.5,0.1,0.8,0,1.2-0.3c0.3-0.2,0.4-0.5,0.5-0.8c0.1,0.2,0.2,0.5,0.3,0.6c0.3,0.3,0.5,0.5,1,0.6
	c0.4,0.1,0.7,0,0.8-0.4c0.1-0.2,0.2-0.3,0.3-0.4c0.3,0.4,0.6,0.8,0.9,1.2c0.1,0.2,0.4,0.3,0.6,0.2c0.9-0.3,1.5-0.7,1.9-1.5
	c0.5-1,0.2-2.6,1.2-3.2c0.1-0.1,0.2-0.1,0.2-0.2c4,0.3,8.1,0.2,12.1,0.8c-0.2,0.6-1.2,5.7-1.6,7.7c-0.3,1.5-1.9,16.5-3.7,33.5
	c-6.2-5.8-13.9-11.5-23.8-16.8l-27.6-15.1h-15.9h-15.9l-27.6,15.1c-10.2,5.4-18.1,11.3-24.4,17.3l6.2,3.4
	C1851.9,479.2,1849.5,513.6,1849.4,513.9z M1932.6,401.5c0.5-0.8,0.7-1.6,0.2-2.2c0-0.1,0-0.2,0-0.2c0.1-0.3,0-0.5-0.2-0.7
	s-0.5-0.3-0.7-0.2c0,0-0.1-0.1-0.2-0.1c-0.4-0.1-0.9-0.2-1.3-0.3c0.2-0.8,0.5-1.6,1-2.1c0.7-0.8,1.9-1.2,2.8-1.8
	c2.3-1.4,3-4.5,3.6-6.9l0.1-0.1c2.6-3.6,6.6-6,9.5-9.4c2-2.3,3.2-7.4,6.9-7.4c0.1,0,0.2,0,0.2,0c0,0.2,0.1,0.3,0.1,0.5
	c0.5,3.9-0.8,8.1-1.2,12.1c-0.1,0.1-0.2,0.3-0.2,0.5c-0.2,3.6-4,6.3-5.5,9.3c-1.5,2.9-3,6.5-3.1,9.9c-0.2,0-0.3,0.1-0.4,0.3
	C1940.3,403.3,1936.5,401.7,1932.6,401.5z"/>
<path class="st0" d="M2203.4,514l0.1-2.4l2.5,2.4h149.1l2.2-16.7c0,0,4-16.9,4-21.4s0-17.8,0-17.8v-15.6c0,0-3.6-7.1-5.4-6.2
	c-1.8,0.9-7.1-1.3-9.4-0.4c-2.2,0.9-12.5,2.7-15.2,4c-2.7,1.3-10.7-0.9-10.7-0.9s-0.9-8.5-4-8c-3.1,0.4-10.7-4-12.5-3.1
	c-1.8,0.9-9.8,2.2-11.6,1.8c-1.8-0.4-8,23.6-8,23.6l-11.1-138.7l-11.6-2.2l-4.9,3.6v11.6l-4.5-0.4v-14l-9.4-1.8l-8,5v13.9l0,0v-10.8
	l-3.1-2V331l-3.1,0.6v-14.1l-7.6,3.1l-4.4,83.8l-9.5,2.7l-3.3,84.5l-6.4-9.8h-6l-14.6-8l-0.6-59.8l-17.5-9.5l-3.6-5.4l-16.4,0.3
	l-2-14.1h-5.2l-3.6-6.1v-34.4l3.3-12l-29.5-27.3l-0.5,0.9h-3.9l-0.5-0.9l-29.5,27.3l3.3,12v34.4l-3.6,6.1h-5.2l-2,14.1l-16.4-0.3
	l-3.6,5.4l-17.5,9.5l-0.6,59.8l-14.6,8h-6l-6.5,10.6l1.1,21.6H2203.4z M2252.8,415.2v11.4h-8.6v-11.4h0c0-2.4,1.9-4.3,4.3-4.3
	S2252.8,412.8,2252.8,415.2z M2247.6,354.9c2.4,0,4.3,1.9,4.3,4.3v11.4h-8.6v-11.4h0C2243.3,356.8,2245.2,354.9,2247.6,354.9z
	 M2116.3,349.2c0-0.9,0.7-1.6,1.6-1.6c0.9,0,1.6,0.7,1.6,1.6v25.9c0,0.9-0.7,1.6-1.6,1.6c-0.9,0-1.6-0.7-1.6-1.6V349.2z
	 M2103.7,349.2c0-0.9,0.7-1.6,1.6-1.6s1.6,0.7,1.6,1.6v25.9c0,0.9-0.7,1.6-1.6,1.6s-1.6-0.7-1.6-1.6V349.2z M2091.1,349.2
	c0-0.9,0.7-1.6,1.6-1.6c0.9,0,1.6,0.7,1.6,1.6v25.9c0,0.9-0.7,1.6-1.6,1.6c-0.9,0-1.6-0.7-1.6-1.6V349.2z M2078.5,349.2
	c0-0.9,0.7-1.6,1.6-1.6c0.9,0,1.6,0.7,1.6,1.6v25.9c0,0.9-0.7,1.6-1.6,1.6c-0.9,0-1.6-0.7-1.6-1.6V349.2z"/>
</svg>
